<svg width="46" height="46" viewBox="0 0 46 46" fill="none" xmlns="http://www.w3.org/2000/svg">
<g clip-path="url(#clip0)">
<path d="M16.829 9.31999C16.829 6.04416 21.8534 0.80005 22.4265 0.210093C22.5733 0.0678445 22.772 -0.00777185 22.9764 0.000837927H22.9783C23.1831 -0.00739752 23.3822 0.0693418 23.5289 0.212713C24.1013 0.807912 29.1238 6.10892 29.1238 9.3316C29.1238 12.7796 26.3661 15.5789 22.9764 15.5789C19.5864 15.5789 16.829 12.768 16.829 9.31999ZM27.5905 9.31999C27.5905 8.27634 26.6936 6.51769 25.0649 4.36787C24.278 3.32945 23.4837 2.4142 22.9742 1.84895C22.4651 2.40971 21.6722 3.3171 20.8872 4.34953C19.2589 6.49074 18.3623 8.25575 18.3623 9.31999C18.3623 11.9224 20.4324 14.0397 22.9764 14.0397C25.5208 14.0397 27.5905 11.922 27.5905 9.31999Z" fill="#005DCA"/>
<path d="M20.0405 10.2186C20.0405 8.74861 22.0278 6.60664 22.4269 6.19637C22.5688 6.04177 22.7664 5.95043 22.9764 5.94219H22.9783C23.1887 5.95043 23.3871 6.04326 23.5289 6.19899C23.5522 6.22332 24.1088 6.8144 24.6718 7.55671C25.5062 8.65727 25.912 9.52985 25.912 10.213C25.912 11.8552 24.5951 13.1943 22.9764 13.1943C21.3447 13.1819 20.0311 11.8504 20.0405 10.2186ZM24.3787 10.2186C24.3787 9.78515 23.7229 8.78342 22.9742 7.89661C22.2277 8.77668 21.5738 9.77617 21.5738 10.2186C21.5738 11.0018 22.2161 11.6636 22.9764 11.6636C23.7367 11.6636 24.3787 11.0021 24.3787 10.2186Z" fill="#005DCA"/>
<path d="M13.585 29.8041C13.585 29.3807 13.9283 29.0374 14.3516 29.0374H31.5053C31.9287 29.0374 32.272 29.3807 32.272 29.8041V40.5371C32.272 40.9605 31.9287 41.3037 31.5053 41.3037H14.3516C13.9283 41.3037 13.585 40.9605 13.585 40.5371V29.8041ZM30.7387 30.5707H15.2141V39.6746H30.7387V30.5707Z" fill="#005DCA"/>
<path d="M6.75705 16.2919H14.8308V17.8252H8.52056L12.9355 22.577C13.6924 22.2577 14.4928 22.0533 15.3099 21.9706V19.5741C15.3081 19.1458 15.6483 18.7947 16.0766 18.7835H19.1432V16.6644C19.1432 16.241 19.5183 15.9086 19.9416 15.9086H26.0108C26.4342 15.9086 26.8096 16.241 26.8096 16.6644V18.7835H29.8762C30.3041 18.7947 30.6447 19.1458 30.6428 19.5741V21.9706C31.46 22.0533 32.26 22.2577 33.0169 22.577L37.4322 17.8252H31.122V16.2919H39.1957C39.5034 16.3005 39.7778 16.4873 39.8984 16.7707C40.0189 17.054 39.9635 17.3816 39.7561 17.6092L34.3802 23.3515C36.6656 24.9062 38.03 27.494 38.0218 30.2577V45.2788C38.0304 45.4719 37.9574 45.6602 37.8208 45.7972C37.6838 45.9346 37.4959 46.0076 37.3023 45.9994H8.65008C8.45692 46.0076 8.26863 45.9346 8.132 45.7972C7.99499 45.6602 7.92199 45.4719 7.93098 45.2788V30.2577C7.92274 27.4951 9.28721 24.9088 11.5725 23.3564L6.20865 17.6185C5.99864 17.3891 5.94062 17.0585 6.06041 16.7714C6.1772 16.488 6.45047 16.3001 6.75705 16.2919V16.2919ZM25.2763 17.4419H20.6765V18.7835H25.2763V17.4419ZM16.8432 20.3168V21.9459H29.1096V20.3168H16.8432ZM9.46427 30.2577V44.4661H36.4885V30.2577C36.496 28.4612 35.7874 26.7359 34.5191 25.4639C33.2509 24.1915 31.5282 23.4773 29.7317 23.4792H16.2207C14.4246 23.4773 12.7015 24.1915 11.4333 25.4639C10.165 26.7359 9.45641 28.4612 9.46427 30.2577Z" fill="#005DCA"/>
</g>
<defs>
<clipPath id="clip0">
<rect width="46" height="46" fill="white" transform="matrix(-1 0 0 1 46 1.52588e-05)"/>
</clipPath>
</defs>
</svg>
