<svg width="46" height="46" viewBox="0 0 46 46" fill="none" xmlns="http://www.w3.org/2000/svg">
<g clip-path="url(#clip0)">
<path d="M26.5938 25.8857H36.6562C38.0434 25.8857 39.1719 27.0142 39.1719 28.4014C39.1719 29.7885 38.0434 30.917 36.6562 30.917H9.36531C9.34016 30.9206 9.27547 30.9278 9.25031 30.9285C7.51884 30.9774 6.10938 32.4264 6.10938 34.1571C6.10938 35.9295 7.54256 37.3735 9.31069 37.3915C9.33872 37.3886 9.37034 37.3865 9.39191 37.3865H20.8438C22.2309 37.3865 23.3594 38.5149 23.3594 39.9021V45.287C23.3594 45.6844 23.0381 46.0057 22.6406 46.0057C22.2432 46.0057 21.9219 45.6844 21.9219 45.287V39.9021C21.9219 39.3077 21.4382 38.824 20.8438 38.824H9.42928C9.39909 38.8268 9.36603 38.829 9.34375 38.829C6.76775 38.829 4.67188 36.7331 4.67188 34.1571C4.67188 31.6566 6.70737 29.5629 9.17484 29.4924C9.23019 29.4852 9.28553 29.4795 9.34303 29.4795H36.6562C37.2507 29.4795 37.7344 28.9958 37.7344 28.4014C37.7344 27.807 37.2507 27.3232 36.6562 27.3232H26.5938C24.0177 27.3232 21.9219 25.2274 21.9219 22.6514V16.9948C19.43 16.2243 17.6151 13.8984 17.6151 11.1578C17.6151 11.1492 17.6194 11.142 17.6202 11.1334V9.92517C16.7857 9.62761 16.1827 8.83698 16.1827 7.90189C16.1827 6.71308 17.1501 5.74564 18.3389 5.74564C18.3439 5.74564 18.3482 5.74851 18.3533 5.74851H19.0569V1.79108C19.0569 0.79992 19.8627 -0.00579834 20.8538 -0.00579834C21.845 -0.00579834 22.6507 0.79992 22.6507 1.79108V5.7478H24.8077V1.79108C24.8077 0.79992 25.6134 -0.00579834 26.6045 -0.00579834C27.5957 -0.00579834 28.4014 0.79992 28.4014 1.79108V5.7478H29.1345C29.1381 5.7478 29.1417 5.74995 29.146 5.74995C30.3241 5.76361 31.2786 6.72314 31.2786 7.90405C31.2786 8.8413 30.6741 9.63192 29.8375 9.92876L29.8288 11.1341C29.8296 11.142 29.8339 11.1492 29.8339 11.1571C29.8339 13.902 28.0133 16.23 25.5156 16.9977V22.6506C25.5156 23.245 25.9993 23.7288 26.5938 23.7288H36.6577C39.233 23.7295 41.3281 25.8254 41.3281 28.4006C41.3281 30.9766 39.2323 33.0725 36.6562 33.0725H9.43719C9.40484 33.0754 9.36747 33.0783 9.34375 33.0783C8.74934 33.0783 8.26562 33.562 8.26562 34.1564C8.26562 34.7343 8.73066 35.2122 9.29847 35.2309C9.31428 35.2302 9.33081 35.2295 9.34375 35.2295H20.8438C23.4198 35.2295 25.5156 37.3254 25.5156 39.9014V45.2862C25.5156 45.6837 25.1943 46.005 24.7969 46.005C24.3994 46.005 24.0781 45.6837 24.0781 45.2862V39.9014C24.0781 38.1181 22.627 36.667 20.8438 36.667H9.3725C9.35094 36.6684 9.32937 36.6684 9.30925 36.6691C7.94147 36.6505 6.82812 35.5227 6.82812 34.1564C6.82812 32.7821 7.93644 31.6609 9.30566 31.6408C9.338 31.6379 9.37466 31.635 9.39909 31.635H36.6562C38.4395 31.635 39.8906 30.1839 39.8906 28.4006C39.8906 26.6181 38.4395 25.167 36.657 25.1663H26.5938C25.2066 25.1663 24.0781 24.0378 24.0781 22.6506V17.2478C23.9602 17.255 23.8438 17.2658 23.7245 17.2658C23.6009 17.2658 23.4808 17.2543 23.3594 17.2478V22.6506C23.3594 24.4346 24.8105 25.8857 26.5938 25.8857ZM29.0799 8.63142C29.095 8.6307 29.1072 8.6228 29.1223 8.6228C29.5191 8.6228 29.8411 8.3008 29.8411 7.90405C29.8411 7.5073 29.5191 7.1853 29.1223 7.1853H18.3267C17.9357 7.19248 17.6202 7.50873 17.6202 7.90117C17.6202 8.29792 17.9422 8.61992 18.3389 8.61992C18.3583 8.61992 18.3756 8.62998 18.3942 8.63142H29.0799ZM21.2132 1.79108C21.2132 1.59342 21.0515 1.4317 20.8538 1.4317C20.6562 1.4317 20.4944 1.59342 20.4944 1.79108V5.7478H21.2132V1.79108ZM26.9639 1.79108C26.9639 1.59342 26.8022 1.4317 26.6045 1.4317C26.4069 1.4317 26.2452 1.59342 26.2452 1.79108V5.7478H26.9639V1.79108ZM28.3957 11.1736C28.3949 11.1657 28.3913 11.16 28.3913 11.1528L28.3985 10.0689H19.0577V11.1578C19.0577 11.165 19.0541 11.1708 19.0533 11.1772C19.0641 13.7439 21.155 15.8297 23.7245 15.8297C26.2947 15.829 28.3863 13.7417 28.3957 11.1736Z" fill="white"/>
</g>
<defs>
<clipPath id="clip0">
<rect width="46" height="46" fill="white" transform="matrix(-1 0 0 1 46 0)"/>
</clipPath>
</defs>
</svg>
