<svg width="46" height="46" viewBox="0 0 46 46" fill="none" xmlns="http://www.w3.org/2000/svg">
<g clip-path="url(#clip0)">
<path d="M32.3308 28.0277C32.3308 33.1797 28.1391 37.3714 22.987 37.3714C17.835 37.3714 13.6433 33.1797 13.6433 28.0277C13.6433 24.5446 15.604 21.3462 18.6717 19.7448V19.4012C18.2749 19.4005 17.9551 19.0799 17.9551 18.6832V14.3851C17.9551 14.3815 17.9529 14.3779 17.9529 14.3743C17.9529 12.2281 19.3056 10.396 21.2017 9.67366V0.71875C21.2017 0.321281 21.523 0 21.9204 0C22.3179 0 22.6392 0.321281 22.6392 0.71875V9.35813C22.7549 9.35022 22.8699 9.34088 22.987 9.34088C23.1121 9.34088 23.2343 9.35094 23.3572 9.35956V0.71875C23.3572 0.321281 23.6785 0 24.076 0C24.4734 0 24.7947 0.321281 24.7947 0.71875V9.68156C26.6793 10.4104 28.0212 12.236 28.0212 14.3743C28.0212 14.3779 28.019 14.3815 28.019 14.3851V18.671C28.019 18.6731 28.0176 18.6753 28.0176 18.6774C28.0176 18.6796 28.019 18.6818 28.019 18.6839C28.019 19.0814 27.6977 19.4027 27.3003 19.4027H27.2996V19.7433C30.3693 21.3433 32.3308 24.5424 32.3308 28.0277V28.0277ZM22.987 10.7777C21.0076 10.7777 19.3969 12.3862 19.3911 14.3649C19.3911 14.3671 19.3926 14.3685 19.3926 14.3707V17.9522C19.4141 17.9522 19.4321 17.9623 19.453 17.9644H26.5183C26.5398 17.9623 26.5585 17.9515 26.5808 17.9515H26.5815V14.3707C26.5815 14.3685 26.583 14.3671 26.583 14.3649C26.5779 12.3862 24.9665 10.7777 22.987 10.7777ZM21.9082 29.1036C22.3057 29.1036 22.627 29.4249 22.627 29.8224C22.627 30.0208 22.7887 30.1825 22.9863 30.1825C23.1847 30.1825 23.3464 30.0208 23.3464 29.8224C23.3464 29.4249 23.6677 29.1036 24.0652 29.1036C24.4626 29.1036 24.7839 29.4249 24.7839 29.8224C24.7839 30.0208 24.9456 30.1825 25.1433 30.1825C25.3101 30.1825 25.4452 30.0653 25.4861 29.9101L24.306 26.846C23.9401 27.1314 23.4859 27.3096 22.987 27.3096C22.4882 27.3096 22.034 27.1321 21.6681 26.846L20.4872 29.9108C20.5282 30.0653 20.6619 30.1825 20.8294 30.1825C21.0277 30.1825 21.1895 30.0208 21.1895 29.8224C21.1895 29.4249 21.5115 29.1036 21.9082 29.1036V29.1036ZM22.2683 25.1534C22.2683 25.5501 22.5903 25.8721 22.987 25.8721C23.3838 25.8721 23.7058 25.5501 23.7058 25.1534V19.4019H22.2683V25.1534ZM25.1433 19.4019V25.019L26.8935 29.5636C26.9107 29.6089 26.9086 29.6542 26.9165 29.6995C26.9236 29.7412 26.9409 29.7778 26.9409 29.8217C26.9409 29.8267 26.9395 29.8317 26.9395 29.8368C26.9395 29.8461 26.9373 29.854 26.9366 29.8633C26.9143 30.8351 26.1201 31.6193 25.1433 31.6193C24.7372 31.6193 24.3663 31.4791 24.0652 31.2505C23.7633 31.4784 23.3924 31.6193 22.9863 31.6193C22.5802 31.6193 22.2094 31.4791 21.9082 31.2505C21.6063 31.4784 21.2355 31.6193 20.8294 31.6193C19.8526 31.6193 19.0591 30.8344 19.0368 29.8633C19.0361 29.854 19.0339 29.8461 19.0339 29.8368C19.0339 29.8317 19.0325 29.8267 19.0325 29.8217C19.0325 29.7778 19.0497 29.7404 19.0569 29.6987C19.0648 29.6535 19.0634 29.6082 19.0799 29.5636L20.8308 25.019V19.4019H20.1092V20.1645V20.1652V20.1868C20.1092 20.2213 20.0941 20.2508 20.0898 20.2838C20.0819 20.3406 20.0768 20.3974 20.056 20.4506C20.0387 20.4952 20.0085 20.5304 19.9827 20.5706C19.9582 20.6087 19.9388 20.6483 19.9079 20.6806C19.8684 20.7223 19.8188 20.7496 19.7714 20.7805C19.7426 20.7992 19.7218 20.8258 19.6901 20.8402C16.8899 22.126 15.0808 24.9478 15.0808 28.0277C15.0808 32.3869 18.6278 35.9339 22.987 35.9339C27.3463 35.9339 30.8933 32.3869 30.8933 28.0277C30.8933 24.9457 29.0828 22.1231 26.2811 20.838C26.2487 20.8229 26.2272 20.7963 26.1984 20.7776C26.1517 20.7467 26.1021 20.7201 26.0633 20.6792C26.031 20.6454 26.0116 20.6044 25.9871 20.5663C25.962 20.5268 25.9325 20.4916 25.9152 20.4484C25.8944 20.3953 25.8894 20.3377 25.8815 20.281C25.8764 20.2479 25.8621 20.2192 25.8621 20.1847V20.1638C25.8621 20.1631 25.8621 20.1631 25.8621 20.1624V19.4019H25.1433Z" fill="white"/>
<path d="M22.9987 38.8125C23.3961 38.8125 23.7174 39.1338 23.7174 39.5312V45.2812C23.7174 45.6787 23.3961 46 22.9987 46C22.6012 46 22.2799 45.6787 22.2799 45.2812V39.5312C22.2799 39.1338 22.6012 38.8125 22.9987 38.8125Z" fill="white"/>
<path d="M16.6267 37.6309C16.8258 37.2866 17.2671 37.1687 17.6085 37.3678C17.9528 37.5662 18.0707 38.006 17.8716 38.3496L14.9966 43.3291C14.8629 43.5598 14.6221 43.6885 14.3734 43.6885C14.2512 43.6885 14.1276 43.6576 14.0148 43.5922C13.6705 43.3938 13.5526 42.9539 13.7517 42.6104L16.6267 37.6309Z" fill="white"/>
<path d="M7.70223 36.0338L12.6817 33.1595C13.026 32.9612 13.4645 33.079 13.6636 33.4226C13.8619 33.7669 13.7441 34.206 13.4005 34.4044L8.42098 37.2787C8.30814 37.3441 8.18451 37.375 8.06232 37.375C7.81364 37.375 7.57213 37.2456 7.43917 37.0156C7.24007 36.6713 7.35795 36.2322 7.70223 36.0338Z" fill="white"/>
<path d="M5.75072 27.3132L11.5 27.3139C11.8975 27.3139 12.2188 27.6359 12.2188 28.0327C12.2188 28.4302 11.8967 28.7514 11.5 28.7514L5.75072 28.7507C5.35325 28.7507 5.03197 28.4287 5.03197 28.032C5.03197 27.6345 5.35397 27.3132 5.75072 27.3132Z" fill="white"/>
<path d="M33.7799 28.032C33.7799 27.6345 34.1012 27.3132 34.4987 27.3132H40.2494C40.6469 27.3132 40.9681 27.6345 40.9681 28.032C40.9681 28.4294 40.6469 28.7507 40.2494 28.7507H34.4987C34.1012 28.7507 33.7799 28.4294 33.7799 28.032Z" fill="white"/>
<path d="M32.3353 33.4226C32.5344 33.0783 32.975 32.9604 33.3172 33.1595L38.2981 36.0345C38.6424 36.2329 38.7602 36.6728 38.5612 37.0163C38.4275 37.2463 38.1867 37.3757 37.938 37.3757C37.8158 37.3757 37.6922 37.3448 37.5793 37.2794L32.5984 34.4044C32.2548 34.206 32.137 33.7661 32.3353 33.4226Z" fill="white"/>
<path d="M28.3892 37.3685C28.7334 37.1701 29.1726 37.2866 29.371 37.6316L32.2467 42.6118C32.4451 42.9561 32.3272 43.3952 31.9836 43.5936C31.8708 43.659 31.7472 43.6899 31.625 43.6899C31.3763 43.6899 31.1348 43.5612 31.0018 43.3305L28.1261 38.3503C27.927 38.0068 28.0456 37.5676 28.3892 37.3685Z" fill="white"/>
</g>
<defs>
<clipPath id="clip0">
<rect width="46" height="46" fill="white" transform="matrix(-1 0 0 1 46 0)"/>
</clipPath>
</defs>
</svg>
