<svg width="46" height="46" viewBox="0 0 46 46" fill="none" xmlns="http://www.w3.org/2000/svg">
<path d="M20.9501 15.6075L20.9931 15.5601C21.5241 15.0254 22.2465 14.7247 23 14.7246C23.7291 14.7253 24.4297 15.0076 24.9553 15.5127L25.0027 15.5558C25.5357 16.0876 25.8348 16.8098 25.8339 17.5627V37.3004C25.8315 38.8653 24.5648 40.1338 23 40.1385C21.4336 40.1362 20.1643 38.8669 20.1619 37.3004V17.5627C20.163 16.8338 20.4453 16.1333 20.9501 15.6075ZM21.708 37.3004C21.7218 38.0082 22.2922 38.5787 23 38.5924C23.7079 38.5787 24.2783 38.0082 24.2921 37.3004V17.5627C24.2941 17.2151 24.1559 16.8813 23.9088 16.6368L23.8786 16.6066C23.641 16.3819 23.327 16.2558 23 16.2535C22.6524 16.2514 22.3186 16.3897 22.0741 16.6368L22.0397 16.6669C21.8187 16.9122 21.7001 17.2327 21.708 17.5627V37.3004Z" fill="white"/>
<path d="M29.9338 15.5558C30.4642 15.0234 31.1849 14.7243 31.9364 14.7246C32.6655 14.7253 33.3661 15.0076 33.8917 15.5127L33.9391 15.5558C34.4721 16.0876 34.7712 16.8098 34.7703 17.5627V37.3004C34.7706 38.0519 34.4715 38.7727 33.9391 39.303C33.4091 39.8366 32.6885 40.1372 31.9364 40.1385C31.1849 40.1389 30.4642 39.8398 29.9338 39.3073C29.4014 38.777 29.1023 38.0562 29.1026 37.3047V17.5627C29.1017 16.8098 29.4008 16.0876 29.9338 15.5558ZM30.61 37.3004C30.61 38.0139 31.1885 38.5924 31.902 38.5924C32.6155 38.5924 33.194 38.0139 33.194 37.3004L33.2285 17.5627C33.2305 17.2151 33.0923 16.8813 32.8452 16.6368L32.815 16.6066C32.5731 16.3779 32.2521 16.2513 31.9192 16.2535C31.5716 16.2514 31.2378 16.3897 30.9933 16.6368C30.7462 16.8813 30.6079 17.2151 30.61 17.5627V37.3004Z" fill="white"/>
<path d="M12.0609 15.5558C12.5916 15.0238 13.3121 14.7247 14.0635 14.7246C14.7925 14.7253 15.4931 15.0076 16.0188 15.5127L16.0661 15.5558C16.5992 16.0876 16.8983 16.8098 16.8973 17.5627V37.3004C16.8972 38.0518 16.5981 38.7723 16.0661 39.303C15.5362 39.8366 14.8156 40.1372 14.0635 40.1385C13.312 40.1389 12.5913 39.8398 12.0609 39.3073C11.5285 38.777 11.2294 38.0562 11.2297 37.3047V17.5627C11.2288 16.8098 11.5279 16.0876 12.0609 15.5558ZM12.7328 37.3004C12.7328 38.0139 13.3113 38.5924 14.0248 38.5924C14.7383 38.5924 15.3168 38.0139 15.3168 37.3004L15.3555 17.5627C15.3564 17.2144 15.2166 16.8806 14.9679 16.6368L14.9378 16.6066C14.6959 16.3779 14.3749 16.2513 14.042 16.2535C13.6943 16.2514 13.3606 16.3897 13.1161 16.6368C12.869 16.8813 12.7307 17.2151 12.7328 17.5627V37.3004Z" fill="white"/>
<path d="M3.15899 4.97856C3.68936 4.44614 4.41009 4.14704 5.16161 4.14736H14.266C14.6502 1.76123 16.707 0.00516806 19.124 0H26.8761C29.2913 0.00721375 31.3458 1.76285 31.7297 4.14736H40.8384C42.4032 4.1521 43.6699 5.42064 43.6722 6.98549C43.6716 7.71451 43.3893 8.4151 42.8841 8.94074L42.841 8.98811C42.3093 9.52117 41.587 9.82028 40.8341 9.81931H5.16161C4.41009 9.81963 3.68936 9.52053 3.15899 8.98811C2.62657 8.45774 2.32747 7.73701 2.32779 6.98549C2.32682 6.23257 2.62593 5.51033 3.15899 4.97856ZM29.2706 2.51943C28.6366 1.88236 27.7749 1.52425 26.8761 1.52458H19.124C17.5501 1.5305 16.1856 2.61525 15.825 4.14736H30.175C30.0313 3.53097 29.718 2.96711 29.2706 2.51943ZM5.16592 8.29473H40.8384C41.1827 8.29904 41.5145 8.16564 41.7601 7.92435L41.7902 7.89421C42.019 7.65228 42.1454 7.33132 42.1434 6.99841L42.1477 6.98549C42.1339 6.27768 41.5635 5.70726 40.8557 5.69348H5.18314C4.83548 5.69143 4.50171 5.82967 4.2572 6.07677C4.0101 6.32129 3.87186 6.65506 3.8739 7.00272C3.8739 7.71623 4.4524 8.29473 5.16592 8.29473Z" fill="white"/>
<path d="M7.16417 11.3482V42.2919C7.16891 43.4934 8.1418 44.4663 9.34337 44.4711H36.6565C37.8581 44.4663 38.831 43.4934 38.8357 42.2919V11.3482H40.3646V42.2919C40.3599 44.3378 38.7024 45.9952 36.6565 45.9999H9.34337C7.29747 45.9952 5.64003 44.3378 5.63529 42.2919V11.3482H7.16417Z" fill="white"/>
</svg>
