<svg width="46" height="46" viewBox="0 0 46 46" fill="none" xmlns="http://www.w3.org/2000/svg">
<g clip-path="url(#clip0)">
<path d="M17.5306 23.1622C17.754 23.1616 17.9642 23.2674 18.0967 23.4472C20.394 26.5722 24.7896 27.2431 27.9146 24.9459C29.1368 24.0474 30.0353 22.7771 30.4754 21.3254C30.5416 20.9977 30.8299 20.7624 31.1643 20.7632H34.7627C35.1497 20.7632 35.4634 21.077 35.4634 21.4639V25.8462H34.7152C34.495 25.8464 34.2752 25.8649 34.058 25.9016V22.1725H31.6828C30.4692 25.4991 27.3065 27.713 23.7655 27.7147L23.7576 27.7186C21.2011 27.7153 18.7847 26.55 17.1901 24.5517H9.348V23.1622H17.5306Z" fill="white"/>
<path d="M2.96661 9.15641C3.51132 8.60447 4.25357 8.29243 5.02908 8.28946C6.64699 8.28946 7.9585 9.60097 7.9585 11.2189V27.3742C7.95414 28.9859 6.64867 30.2914 5.03699 30.2957L5.02908 30.2918C3.4174 30.2874 2.11193 28.9819 2.10757 27.3703V11.2189C2.10807 10.4445 2.41724 9.70221 2.96661 9.15641ZM3.51686 27.3742C3.52973 28.2021 4.20112 28.8682 5.02908 28.8746C5.86465 28.8702 6.54089 28.194 6.54525 27.3584V11.2189C6.54089 10.3833 5.86465 9.70706 5.02908 9.70271C4.62757 9.70399 4.24298 9.86491 3.96023 10.15C3.676 10.4347 3.51647 10.8205 3.51686 11.2228V27.3742V27.3742Z" fill="white"/>
<path d="M18.6469 0.767983L18.6944 0.724438C19.1644 0.267013 19.7922 0.00762045 20.4481 0H27.0591C27.7417 0.00415661 28.3943 0.28067 28.8722 0.767983C29.8735 1.76399 29.8778 3.38318 28.8818 4.38453C28.8786 4.3877 28.8753 4.39096 28.8722 4.39413L28.8247 4.43767C28.3455 4.88352 27.7136 5.12856 27.0591 5.12253H20.4481C19.773 5.12154 19.1258 4.85403 18.6469 4.37829C17.6524 3.38031 17.6524 1.76596 18.6469 0.767983ZM19.6245 3.38447C19.6259 3.38585 19.6273 3.38724 19.6287 3.38863C19.8456 3.60665 20.1405 3.72917 20.4481 3.72907H27.0591C27.3532 3.72937 27.6363 3.61754 27.8508 3.41634L27.8785 3.38467C28.3311 2.93437 28.333 2.20251 27.8827 1.74993C27.8813 1.74855 27.8799 1.74716 27.8785 1.74578C27.6616 1.52775 27.3667 1.40523 27.0591 1.40533H20.4481C20.154 1.40503 19.8709 1.51687 19.6564 1.71806L19.6287 1.74973C19.1761 2.20003 19.1742 2.93189 19.6245 3.38447Z" fill="white"/>
<path d="M17.1862 13.4001C17.8622 12.5003 18.7167 11.7496 19.696 11.1951C20.7333 10.6397 21.8816 10.3232 23.057 10.2688V6.5318H24.4544V10.2688C26.0216 10.4575 27.5099 11.0616 28.7654 12.0185C30.0736 12.981 31.0802 14.2965 31.6671 15.8109H36.9361C39.7231 15.8088 41.9879 18.0594 42.0032 20.8464V25.9016C41.786 25.8649 41.5662 25.8464 41.346 25.8462H40.582V20.8464C40.5755 18.8355 38.947 17.207 36.9361 17.2004H31.1643C30.8522 17.2003 30.5777 16.9937 30.4913 16.6937C30.036 15.2694 29.1354 14.0288 27.9222 13.1547C26.727 12.2277 25.2694 11.7026 23.7576 11.6543C22.5819 11.6179 21.4166 11.8837 20.373 12.4263C19.4824 12.9386 18.7148 13.6399 18.1244 14.4808C17.9954 14.6838 17.7711 14.8063 17.5306 14.8054H9.34806V13.4001H17.1862V13.4001Z" fill="white"/>
<path d="M32.8982 27.9997L32.9457 27.9562C33.4206 27.5002 34.053 27.245 34.7113 27.2436H41.3302C42.0091 27.2447 42.6598 27.5152 43.1393 27.9957C44.1385 28.9878 44.1442 30.6019 43.1522 31.6011C43.1479 31.6055 43.1436 31.6097 43.1393 31.614L43.1433 31.6259C42.663 32.1077 42.0106 32.3784 41.3302 32.378H34.7192C33.3025 32.3815 32.1512 31.2358 32.1476 29.8191C32.1461 29.1369 32.4161 28.4823 32.8982 27.9997ZM33.9052 30.6377C34.1223 30.8544 34.4165 30.9763 34.7232 30.9766H41.3302C41.6378 30.9767 41.9327 30.8542 42.1496 30.6362C42.6016 30.1834 42.6016 29.4501 42.1496 28.9973L42.1536 28.9933C41.9367 28.7753 41.6417 28.6528 41.3341 28.6529H34.7232C34.429 28.6526 34.146 28.7644 33.9314 28.9656L33.9037 28.9973C33.4511 29.4507 33.4518 30.1851 33.9052 30.6377Z" fill="white"/>
<path d="M36.7064 35.5608C37.0112 35.2085 37.2883 34.8918 37.4783 34.6582C37.7193 34.3554 38.1601 34.3053 38.4629 34.5462C38.5044 34.5792 38.5419 34.6168 38.5749 34.6582C38.7609 34.8918 39.038 35.2124 39.3389 35.5608C40.7125 37.1443 42.6048 39.3453 42.6048 41.2811C42.6792 43.8118 40.688 45.9235 38.1573 45.998C35.6266 46.0724 33.5149 44.0812 33.4405 41.5505C33.4378 41.4607 33.4378 41.3709 33.4405 41.2811C33.4405 39.3453 35.3367 37.1482 36.7064 35.5608ZM35.7761 43.5217C36.9966 44.7745 39.0016 44.8007 40.2544 43.5802C40.872 42.9786 41.2176 42.1512 41.2113 41.289C41.2113 39.8678 39.517 37.9043 38.2898 36.4832L38.0325 36.1863L37.7752 36.4832C36.548 37.9043 34.8537 39.8678 34.8537 41.289C34.8541 42.1259 35.1857 42.9286 35.7761 43.5217Z" fill="white"/>
</g>
<defs>
<clipPath id="clip0">
<rect width="46" height="46" fill="white" transform="matrix(-1 0 0 1 46 0)"/>
</clipPath>
</defs>
</svg>
